Django==1.5.1
django-celery==3.0.11
django-compressor==1.2
Fabric==1.6.0
South==0.7.6
Sphinx==1.1.3
PIL==1.1.7
Unipath==1.0
dj-database-url==0.2.1
distribute==0.6.36
python-dateutil==2.1
six==1.3.0
wsgiref==0.1.2